[bootstraplovers.com/templates/mentos/index-register.html]
[backblue.gif]
[fade.gif]
[index.html]
[bootstraplovers.com/templates/mentos/index.html]
[bootstraplovers.com/templates/mentos/assets/images/2.png]
[bootstraplovers.com/templates/mentos/assets/images/1.png]
[bootstraplovers.com/templates/mentos/assets/images/phone1.png]
[bootstraplovers.com/templates/mentos/assets/images/thumb1.jpg]
[bootstraplovers.com/templates/mentos/assets/images/thumb2.jpg]
[bootstraplovers.com/templates/mentos/assets/images/thumb3.jpg]
[bootstraplovers.com/templates/mentos/assets/images/w1.jpg]
[bootstraplovers.com/templates/mentos/assets/images/w2.jpg]
[bootstraplovers.com/templates/mentos/assets/images/w3.jpg]
[bootstraplovers.com/templates/mentos/assets/images/w4.jpg]
[bootstraplovers.com/templates/mentos/assets/images/w5.jpg]
[bootstraplovers.com/templates/mentos/assets/images/w6.jpg]
[bootstraplovers.com/templates/mentos/assets/images/ipad-cover.png]
[bootstraplovers.com/templates/mentos/assets/images/cl-1.png]
[bootstraplovers.com/templates/mentos/assets/images/cl-2.png]
[bootstraplovers.com/templates/mentos/assets/images/cl-3.png]
[bootstraplovers.com/templates/mentos/assets/images/cl-4.png]
[bootstraplovers.com/templates/mentos/assets/images/team1.jpg]
[bootstraplovers.com/templates/mentos/assets/images/team2.jpg]
[bootstraplovers.com/templates/mentos/assets/images/team3.jpg]
[bootstraplovers.com/templates/mentos/assets/images/team4.jpg]
[bootstraplovers.com/templates/mentos/assets/images/play-store.png]
[bootstraplovers.com/templates/mentos/assets/images/app-store.png]
[bootstraplovers.com/templates/mentos/assets/bower_components/jquery/dist/jquery.min.js]
[bootstraplovers.com/templates/mentos/assets/js/jquery-migrate.min.js]
[bootstraplovers.com/templates/mentos/assets/js/jquery.easing.min.js]
[bootstraplovers.com/templates/mentos/assets/bootstrap/js/bootstrap.min.js]
[bootstraplovers.com/templates/mentos/assets/bower_components/flexslider/jquery.flexslider-min.js]
[bootstraplovers.com/templates/mentos/assets/js/modernizr.custom.97074.js]
[bootstraplovers.com/templates/mentos/assets/js/jquery.sticky.js]
[bootstraplovers.com/templates/mentos/assets/js/jquery.stellar.min.js]
[bootstraplovers.com/templates/mentos/assets/js/waypoints.min.js]
[bootstraplovers.com/templates/mentos/assets/js/jquery.counterup.min.js]
[bootstraplovers.com/templates/mentos/assets/js/template-custom.js]
[bootstraplovers.com/templates/mentos/assets/js/newsletter-custom.js]
[bootstraplovers.com/templates/mentos/assets/js/contact.js]
[a.vimeocdn.com/js/froogaloop2.min.js]
[bootstraplovers.com/templates/mentos/index-register.html]
[bootstraplovers.com/templates/mentos/index.html]
[bootstraplovers.com/templates/mentos/assets/js/vimeo.js]
[bootstraplovers.com/templates/mentos/assets/bootstrap/fonts/glyphicons-halflings-regular.eot]
[bootstraplovers.com/templates/mentos/assets/bootstrap/fonts/glyphicons-halflings-regulard41d.eot]
[bootstraplovers.com/templates/mentos/assets/bootstrap/fonts/glyphicons-halflings-regular.woff]
[bootstraplovers.com/templates/mentos/assets/bootstrap/fonts/glyphicons-halflings-regular.30.delayed]
[bootstraplovers.com/templates/mentos/assets/bootstrap/css/bootstrap.min.css]
[bootstraplovers.com/templates/mentos/assets/ionicons/fonts/ionicons28b5.eot]
[bootstraplovers.com/templates/mentos/assets/ionicons/fonts/ionicons28b5.ttf]
[bootstraplovers.com/templates/mentos/assets/ionicons/fonts/ionicons.3428b5.delayed]
[a.vimeocdn.com/js/froogaloop2.min.js]
[bootstraplovers.com/templates/mentos/assets/ionicons/css/ionicons.min.css]
[bootstraplovers.com/templates/mentos/assets/bower_components/flexslider/fonts/flexslider-icon.eot]
[bootstraplovers.com/templates/mentos/assets/bower_components/flexslider/fonts/flexslider-icond41d.eot]
[bootstraplovers.com/templates/mentos/assets/ionicons/fonts/ionicons28b5.woff]
[bootstraplovers.com/templates/mentos/assets/bower_components/flexslider/fonts/flexslider-icon.woff]
[bootstraplovers.com/templates/mentos/assets/bower_components/flexslider/fonts/flexslider-icon.ttf]
[bootstraplovers.com/templates/mentos/assets/bower_components/flexslider/flexslider.css]
[bootstraplovers.com/templates/mentos/assets/bootstrap/fonts/glyphicons-halflings-regular.html]
[bootstraplovers.com/templates/mentos/assets/bootstrap/fonts/glyphicons-halflings-regular.svg]
[bootstraplovers.com/templates/mentos/assets/ionicons/fonts/ionicons28b5.svg]
[bootstraplovers.com/templates/mentos/assets/bower_components/flexslider/fonts/flexslider-icon.svg]
[bootstraplovers.com/templates/mentos/assets/images/pattern.png]
[bootstraplovers.com/templates/mentos/assets/images/loader.gif]
[bootstraplovers.com/templates/mentos/assets/images/bg2.jpg]
[bootstraplovers.com/templates/mentos/assets/images/bg3.jpg]
[bootstraplovers.com/templates/mentos/assets/images/bg4.jpg]
[bootstraplovers.com/templates/mentos/assets/css/style.css]
[bootstraplovers.com/templates/mentos/assets/images/bg1.jpg]
